647,648,648,648,648,648,648,648,648,648,648,648,648,648,648,648,648,648,648,648,648,648,648,648,648,648,648,648,648,648,649,-1
687,-1,-1,-1,-1,-1,-1,-1,-1,-1,-1,-1,-1,-1,-1,-1,-1,-1,-1,-1,-1,-1,-1,-1,-1,-1,-1,-1,-1,-1,689,-1
687,-1,-1,-1,-1,-1,-1,-1,-1,-1,-1,-1,-1,-1,-1,-1,-1,-1,-1,-1,-1,-1,-1,-1,-1,-1,-1,-1,-1,-1,689,-1
687,-1,-1,40,41,41,41,41,80,41,1131,41,41,120,41,41,41,41,120,41,41,41,41,41,41,41,41,120,-1,-1,689,-1
687,-1,-1,40,-1,1326,1327,-1,80,-1,1172,-1,-1,120,-1,-1,-1,-1,120,-1,1304,1460,1461,1462,1463,1304,-1,120,-1,-1,689,-1
687,-1,-1,40,-1,1366,1367,-1,80,-1,-1,-1,1136,120,-1,-1,-1,-1,249,-1,1344,1500,1501,1502,1503,1344,-1,120,-1,-1,689,-1
687,-1,-1,40,-1,-1,-1,-1,80,-1,-1,-1,1176,120,-1,-1,-1,-1,-1,-1,-1,1540,1541,1542,1543,-1,-1,120,-1,-1,689,-1
687,-1,-1,40,-1,-1,-1,-1,80,-1,-1,-1,-1,120,-1,-1,-1,-1,-1,-1,-1,1580,1581,1582,1583,-1,-1,120,-1,-1,689,-1
687,-1,-1,40,-1,-1,-1,-1,160,161,-1,-1,163,120,-1,-1,-1,-1,120,-1,-1,-1,-1,-1,-1,-1,-1,120,-1,-1,689,-1
687,-1,-1,40,-1,-1,-1,-1,-1,-1,-1,-1,-1,249,-1,-1,-1,-1,120,-1,-1,-1,-1,-1,-1,-1,-1,120,-1,-1,689,-1
687,-1,-1,40,-1,-1,-1,-1,-1,-1,-1,-1,-1,-1,-1,-1,-1,-1,120,-1,-1,-1,-1,-1,-1,-1,-1,120,-1,-1,689,-1
687,-1,-1,40,-1,-1,-1,-1,-1,-1,1324,-1,-1,-1,-1,-1,-1,-1,120,-1,41,41,41,41,41,1200,1201,120,-1,-1,689,-1
687,-1,-1,40,-1,1369,1370,1370,1370,1371,1364,-1,-1,120,-1,-1,-1,-1,249,-1,1246,1242,1243,1247,1248,1240,1241,120,-1,-1,689,-1
687,-1,-1,40,-1,1409,1410,1410,1410,1411,1404,-1,-1,120,-1,-1,-1,-1,-1,-1,1286,1282,1283,1287,1288,1280,1281,120,-1,-1,689,-1
687,-1,-1,40,-1,-1,-1,-1,-1,-1,-1,-1,-1,120,-1,-1,-1,-1,-1,-1,-1,-1,-1,-1,-1,-1,-1,120,-1,-1,689,-1
687,-1,-1,40,-1,1255,1256,1256,1256,1257,-1,-1,-1,120,-1,-1,-1,-1,120,-1,-1,-1,-1,-1,-1,-1,-1,120,-1,-1,689,-1
687,-1,-1,40,-1,1295,1296,1296,1296,1297,-1,40,41,41,161,222,223,163,41,41,41,41,41,41,41,41,41,164,-1,-1,689,-1
687,-1,-1,40,-1,1335,1336,1336,1336,1337,-1,40,-1,-1,-1,-1,-1,-1,-1,-1,-1,-1,-1,-1,-1,-1,-1,-1,-1,-1,689,-1
687,-1,-1,40,-1,-1,-1,-1,-1,-1,-1,40,-1,-1,-1,-1,-1,-1,-1,-1,-1,-1,-1,-1,-1,-1,-1,-1,-1,-1,689,-1
687,-1,-1,160,41,41,41,41,251,41,41,171,-1,-1,-1,-1,-1,-1,-1,-1,809,728,728,728,728,728,728,728,728,728,729,-1
687,-1,-1,-1,-1,-1,-1,-1,-1,-1,-1,-1,-1,-1,-1,-1,-1,-1,-1,-1,689,-1,-1,-1,-1,-1,-1,-1,-1,-1,-1,-1
687,-1,-1,-1,-1,-1,-1,-1,-1,-1,-1,-1,-1,-1,-1,-1,-1,-1,-1,-1,689,-1,-1,-1,-1,-1,-1,-1,-1,-1,-1,-1
727,728,728,728,728,728,728,728,728,728,728,728,728,728,728,728,728,728,728,728,729,-1,-1,-1,-1,-1,-1,-1,-1,-1,-1,-1
-1,-1,-1,-1,-1,-1,-1,-1,-1,-1,-1,-1,-1,-1,-1,-1,-1,-1,-1,-1,-1,-1,-1,-1,-1,-1,-1,-1,-1,-1,-1,-1
